﻿OLgTrans30,Detects customers that had transactions matching the specified criteria within the last X days.,Detects customers that had transactions matching the specified criteria within the last X days. Can be used to monitor for structured cash transactions or specific types of transactions such as ATM withdrawals.  Designed to be run Post-EOD (i.e. This rule excludes Current activity) 

Individual transactions must be greater than Minimum Transaction Amount AND less than Maximum Transaction Amount and must also match values specified for Customer, Customer Type, Risk Class, Account Type, Branch and Department. 

When using the Cash CashTran Indicator parameter, 
    1 = Ignore the Cash Tran indicator, 
    2 = include any transaction where the Cash Tran indicator is Yes OR that matches a specified Activity Type, 
    3 = include any transaction where the Cash Tran indicator is Yes AND that matches a specified Activity Type. 

Specify Number of days as 0(zero) for current date.

When using the Exclude Exempt parameter, customers will be excluded from evaluation if their Exemption Type is included in the comma separated list or if -ALL- is entered AND if the Exemption Type is configured as exempt from rules. 

The grand total amount of selected transactions must be greater than the Minimum Total Transaction Amount AND less than the Maximum Total Transaction Amount.,1,USR_OLgTrans30,Rule,0,0,NULL,NULL,NULL,UNISYSAD,2016-09-10 08:45:11.230,0161AP002,2017-11-01 09:19:59.873,2017-10-02 19:30:12.687,0,0x00000000008B6E1C,1,,0,15,0,1,1,<Params><Param Name="@excludeExemptCustList" Alias="Exclude Exempt (comma separated list, -ALL- or -NONE-)" Value="-NONE-" DataType="" /><Param Name="@activityTypeList" Alias="Activity Types to be included (comma separated list, -ALL- or -NONE-)" Value="2334,2344,2354,2364,2374,2384,2414" DataType="" /><Param Name="@activityTypeExcludeList" Alias="Activity Types to be excluded (comma separated list or -NONE-) " Value="-NONE-" DataType="" /><Param Name="@cashTranIndicator" Alias="Use CashTran indicator (1-Ignore,2-Yes OR Trans matches Activity Type,3-Yes AND Trans matches Activity Type)" Value="1" DataType="" /><Param Name="@day" Alias="Number of Days" Value="30" DataType="" /><Param Name="@minimumTotalAmount" Alias="Minimum Total Transaction Amount (-1 if no minimum)" Value="1000000" DataType="" /><Param Name="@maximumTotalAmount" Alias="Maximum Total Transaction Amount (-1 if no maximum)" Value="-1" DataType="" /><Param Name="@minimumAmount" Alias="Minimum Transaction Amount (-1 if no minimum)" Value="100000" DataType="" /><Param Name="@maximumAmount" Alias="Maximum Transaction Amount (-1 if no maximum)" Value="-1" DataType="" /><Param Name="@minimumcount" Alias="Minimum Total Transaction Count" Value="10" DataType="" /><Param Name="@customerList" Alias="Customer (comma separated list or -ALL-)" Value="-ALL-" DataType="" /><Param Name="@RiskClassList" Alias="Risk Class (comma separated list or -ALL-)" Value="-ALL-" DataType="" /><Param Name="@CustomerTypeList" Alias="Customer Type (comma separated list or -ALL-)" Value="E" DataType="" /><Param Name="@AccountTypeList" Alias="Account Type (comma separated list or -ALL-)" Value="-ALL-" DataType="" /><Param Name="@BranchList" Alias="Branch (comma separated list or -ALL-)" Value="-ALL-" DataType="" /><Param Name="@DeptList" Alias="Department (comma separated list or -ALL-)" Value="-ALL-" DataType="" /><Param Name="@UseRelAcct" Alias="Include Related Accounts (1=yes, 0=no) " Value="0" DataType="" /><Param Name="@UseRelCust" Alias="Include Related Parties (1=yes, 0=no) " Value="0" DataType="" /><Param Name="@ExcludeRelList" Alias="Exclude Relationship Types (comma separated list or -NONE-)" Value="-NONE-" DataType="" /></Params>,0,1,User Defined,0,0,CustXOverY
LgBankHRCty,Detects transactions, for which any of the country party or the addressfield is from the given list of countries and creates alert/case at the customer level.,Detects transactions, for which any of the country party or the address field is from the given list of countries, and creates alert/case at the customer level. A transaction is included in the evaluation based on its qualification with: specified transaction types, a specified time period, the amount is in a specified range,the country field on the transaction is not in the specified country fields of the customer, and the cumulative amount of all the transactions meeting these constraints is in a specified range and the cumulative count is not less than the specified count.  Additional constraints include: Customer Type, Risk Class, Account Types, Activity Types, Cash/Non-Cash, Branch and Department. The alert/case will display the account information in the description since the account may not be held at the processing institution, and the distinct countries from the list that were found in the transactions. Designed to be run Post-EOD. When using Start Date and End Date parameters, Disable the rule or Reset parameter after rule executes,1,USR_LgBankHRCty,Rule,4,0,NULL,NULL,NULL,UNISYSAD,2016-09-10 08:45:11.197,AMLPRIME,2017-09-22 17:10:39.227,2018-05-01 19:30:13.900,0,0x0000000000E5F9D4,1,,0,15,0,1,1,<Params><Param Name="@Period" Alias="Activity Period. Week, Month, Quarter, Semi-Annual, if Blank-Use Date Parameters" Value="Month" /><Param Name="@StartDate" Alias="Start Date for Lookback MM/DD/YYYY. (Leave Period Blank. Disable rule or Reset parameter after rule executes)" Value="" /><Param Name="@EndDate" Alias="End Date for Lookback MM/DD/YYYY. (Leave Period Blank. Disable rule or Reset parameter after rule executes)" Value="" /><Param Name="@minIndCount" Alias="Minimum transaction count" Value="1" /><Param Name="@minIndAmt" Alias="Minimum individual transaction amount" Value="5000000" /><Param Name="@maxIndAmt" Alias="Maximum individual transaction amount. For no maximum use -1" Value="-1" /><Param Name="@minSumAmount" Alias="Minimum aggregated transaction amount." Value="0" /><Param Name="@maxSumAmount" Alias="Maximum aggregated transaction amount. For no maximum use -1" Value="-1" /><Param Name="@riskClassList" Alias="List of Risk Classes separated by comma. Use -ALL- for All." Value="-ALL-" /><Param Name="@customerTypeList" Alias="List of Customer Types separated by comma. Use -ALL- for All." Value="B" /><Param Name="@accountTypeList" Alias="List of Account Types separated by comma. Use -ALL- for All." Value="-ALL-" /><Param Name="@activityTypeList" Alias="List of Activity Types separated by comma. Use -ALL- for All." Value="1014" /><Param Name="@countryList" Alias="List of Countries separated by comma. Use -ALL- for All." Value="-ALL-" /><Param Name="@UseMonitor" Alias="Use Monitor Field in Country Table. 1 for Yes, 0 for No" Value="1" /><Param Name="@recvpay" Alias="Receive or Pay. 1 for Receive, 2 for Payment, 3 for Both" Value="3" /><Param Name="@branchList" Alias="List of Branches separated by comma. Use -ALL- for All." Value="-ALL-" /><Param Name="@deptList" Alias="List of Departments separated by comma. Use -ALL- for All." Value="-ALL-" /><Param Name="@cashType" Alias="Cash or non-Cash. 1 for Cash, 0 for NonCash, 2 for both" Value="2" /><Param Name="@ExcludeTranbyCustCtryCode" Alias="Exclude Transactions on Customer Country.&#xD;&#xA;										0 - Do not exclude,1 - By customer country,&#xD;&#xA;										2 - By Any customer country" Value="0" /><Param Name="@IncludeAddressFields" Alias="Include Address Fields to match on country.&#xD;&#xA;										0 - Do not Include,1 - Include" Value="0" /><Param Name="@UseRound" Alias="Indicate if only the high round amounts have to considered.&#xD;&#xA;										0 - Do not round,1 - Round" Value="0" /><Param Name="@Precision" Alias="Precision for rounding. Specify 3 for 1000, 2 for 100" Value="0" /></Params>,0,1,User Defined,0,0,HghRiskCtry
IMultiBene,Detects a single Originator sending transactions to one or more Beneficiaries,Detects a single Originator sending transactions to  specified number of Beneficiaries or more. A transaction is included in the evaluation based on its qualification with: specified transaction types, a specified time period, the amount exceeds a certain amount, and the cumulative amount of all the transactions meeting these constraints is over a specified amount. Additional constraints include Country, Customer Type, Risk Class, Account Types, Cash/Non-Cash, Branch and Department. The alert/case will display the account information in the description since the account may not be held at the processing institution. When using Start Date and End Date parameters, Disable the rule or Reset parameter after rule executes. Designed to be run Post-EOD.,1,USR_IMultiBene,Rule,4,0,NULL,NULL,NULL,UNISYSAD,2016-09-10 08:45:11.240,AMLPRIME,2017-09-20 16:35:29.607,2018-05-01 19:30:14.773,0,0x0000000000E5F9E4,1,,0,15,0,1,1,<Params><Param Name="@Period" Alias="Activity Period. Week, Month, Quarter, Semi-Annual, if Blank-Use Date Parameters" Value="Month" /><Param Name="@StartDate" Alias="Start Date for Lookback MM/DD/YYYY. (Leave Period Blank. Disable rule or Reset parameter after rule executes)" Value="" /><Param Name="@EndDate" Alias="End Date for Lookback MM/DD/YYYY. (Leave Period Blank. Disable rule or Reset parameter after rule executes)" Value="" /><Param Name="@minIndCount" Alias="Minimum transaction count" Value="2" /><Param Name="@minIndAmt" Alias="Minimum individual transaction amount" Value="10000" /><Param Name="@maxIndAmt" Alias="Maximum individual transaction amount. For no maximum use -1" Value="-1" /><Param Name="@minSumAmount" Alias="Minimum aggregated transaction amount." Value="0" /><Param Name="@maxSumAmount" Alias="Maximum aggregated transaction amount. For no maximum use -1" Value="-1" /><Param Name="@riskClassList" Alias="List of Risk Classes separated by comma. Use -ALL- for All." Value="-ALL-" /><Param Name="@customerTypeList" Alias="List of Customer Types separated by comma. Use -ALL- for All." Value="I" /><Param Name="@accountTypeList" Alias="List of Account Types separated by comma. Use -ALL- for All." Value="-ALL-" /><Param Name="@activityTypeList" Alias="List of Activity Types separated by comma. Use -ALL- for All." Value="2334,2344,2374,1024,2414,1014" /><Param Name="@countryList" Alias="List of Countries separated by comma. Use -ALL- for All." Value="-ALL-" /><Param Name="@recvpay" Alias="Receive or Pay. 1 for Receive, 2 for Payment, 3 for Both" Value="1" /><Param Name="@branchList" Alias="List of Branches separated by comma. Use -ALL- for All." Value="-ALL-" /><Param Name="@deptList" Alias="List of Departments separated by comma. Use -ALL- for All." Value="-ALL-" /><Param Name="@cashType" Alias="Cash or non-Cash. 1 for Cash, 0 for NonCash, 2 for both" Value="2" /><Param Name="@NumBene" Alias="Minimum number of beneficiaries" Value="2" /></Params>,0,1,User Defined,0,0,1OrgMulBene
OMultiBene,Detects a single Originator sending transactions to one or more Beneficiaries,Detects a single Originator sending transactions to  specified number of Beneficiaries or more. A transaction is included in the evaluation based on its qualification with: specified transaction types, a specified time period, the amount exceeds a certain amount, and the cumulative amount of all the transactions meeting these constraints is over a specified amount. Additional constraints include Country, Customer Type, Risk Class, Account Types, Cash/Non-Cash, Branch and Department. The alert/case will display the account information in the description since the account may not be held at the processing institution. When using Start Date and End Date parameters, Disable the rule or Reset parameter after rule executes. Designed to be run Post-EOD.,1,USR_OMultiBene,Rule,4,0,NULL,NULL,NULL,UNISYSAD,2016-09-10 08:45:11.247,AMLPRIME,2017-05-26 10:57:01.577,2018-05-01 19:30:15.383,0,0x0000000000E5FA22,1,,0,15,0,1,1,<Params><Param Name="@Period" Alias="Activity Period. Week, Month, Quarter, Semi-Annual, if Blank-Use Date Parameters" Value="Month" /><Param Name="@StartDate" Alias="Start Date for Lookback MM/DD/YYYY. (Leave Period Blank. Disable rule or Reset parameter after rule executes)" Value="" /><Param Name="@EndDate" Alias="End Date for Lookback MM/DD/YYYY. (Leave Period Blank. Disable rule or Reset parameter after rule executes)" Value="" /><Param Name="@minIndCount" Alias="Minimum transaction count" Value="2" /><Param Name="@minIndAmt" Alias="Minimum individual transaction amount" Value="50000" /><Param Name="@maxIndAmt" Alias="Maximum individual transaction amount. For no maximum use -1" Value="-1" /><Param Name="@minSumAmount" Alias="Minimum aggregated transaction amount." Value="0" /><Param Name="@maxSumAmount" Alias="Maximum aggregated transaction amount. For no maximum use -1" Value="-1" /><Param Name="@riskClassList" Alias="List of Risk Classes separated by comma. Use -ALL- for All." Value="-ALL-" /><Param Name="@customerTypeList" Alias="List of Customer Types separated by comma. Use -ALL- for All." Value="E" /><Param Name="@accountTypeList" Alias="List of Account Types separated by comma. Use -ALL- for All." Value="-ALL-" /><Param Name="@activityTypeList" Alias="List of Activity Types separated by comma. Use -ALL- for All." Value="2334,2344,2374,1024,2414,1014" /><Param Name="@countryList" Alias="List of Countries separated by comma. Use -ALL- for All." Value="-ALL-" /><Param Name="@recvpay" Alias="Receive or Pay. 1 for Receive, 2 for Payment, 3 for Both" Value="1" /><Param Name="@branchList" Alias="List of Branches separated by comma. Use -ALL- for All." Value="-ALL-" /><Param Name="@deptList" Alias="List of Departments separated by comma. Use -ALL- for All." Value="-ALL-" /><Param Name="@cashType" Alias="Cash or non-Cash. 1 for Cash, 0 for NonCash, 2 for both" Value="2" /><Param Name="@NumBene" Alias="Minimum number of beneficiaries" Value="2" /></Params>,0,1,User Defined,0,0,1OrgMulBene
IMultiOrg,Detects one or more Originators sending transactions to a single Beneficiary,Detects one or more Originators sending transactions to a single  Beneficiary.  A transaction is included in the evaluation based on its qualification with: specified transaction types, a specified time period, the amount exceeds a certain amount, and the cumulative amount of all the transactions meeting these constraints is over a specified amount. Additional constraints include Country, Customer Type, Risk Class, Account Types, Cash/Non-Cash, Branch and Department.  The alert/case will display the account information in the description since the account may not be held at the processing institution. When using Start Date and End Date parameters,Disable the rule or Reset parameter after rule executes. Designed to be run Post-EOD.,1,USR_IMultiOrg,Rule,4,0,NULL,NULL,NULL,UNISYSAD,2016-09-10 08:45:11.257,AMLPRIME,2017-05-26 11:47:53.913,2018-05-01 19:30:15.883,0,0x0000000000E5FA2F,1,,0,15,0,1,1,<Params><Param Name="@Period" Alias="Activity Period. Week, Month, Quarter, Semi-Annual, if Blank-Use Date Parameters" Value="Month" /><Param Name="@StartDate" Alias="Start Date for Lookback MM/DD/YYYY. (Leave Period Blank. Disable rule or Reset parameter after rule executes)" Value="" /><Param Name="@EndDate" Alias="End Date for Lookback MM/DD/YYYY. (Leave Period Blank. Disable rule or Reset parameter after rule executes)" Value="" /><Param Name="@minIndCount" Alias="Minimum transaction count" Value="2" /><Param Name="@minIndAmt" Alias="Minimum individual transaction amount" Value="50000" /><Param Name="@maxIndAmt" Alias="Maximum individual transaction amount. For no maximum use -1" Value="-1" /><Param Name="@minSumAmount" Alias="Minimum aggregated transaction amount." Value="0" /><Param Name="@maxSumAmount" Alias="Maximum aggregated transaction amount. For no maximum use -1" Value="-1" /><Param Name="@riskClassList" Alias="List of Risk Classes separated by comma. Use -ALL- for All." Value="-ALL-" /><Param Name="@customerTypeList" Alias="List of Customer Types separated by comma. Use -ALL- for All." Value="I" /><Param Name="@accountTypeList" Alias="List of Account Types separated by comma. Use -ALL- for All." Value="-ALL-" /><Param Name="@activityTypeList" Alias="List of Activity Types separated by comma. Use -ALL- for All." Value="2354,2364,2384,1024,2414,1014" /><Param Name="@countryList" Alias="List of Countries separated by comma. Use -ALL- for All." Value="-ALL-" /><Param Name="@recvpay" Alias="Receive or Pay. 1 for Receive, 2 for Payment, 3 for Both" Value="2" /><Param Name="@branchList" Alias="List of Branches separated by comma. Use -ALL- for All." Value="-ALL-" /><Param Name="@deptList" Alias="List of Departments separated by comma. Use -ALL- for All." Value="-ALL-" /><Param Name="@cashType" Alias="Cash or non-Cash. 1 for Cash, 0 for NonCash, 2 for both" Value="2" /><Param Name="@NumByOrder" Alias="Minimum number of Originators" Value="1" /></Params>,0,1,User Defined,0,0,MulOrg1Bene
OMultiOrg,Detects one or more Originators sending transactions to a single Beneficiary,Detects one or more Originators sending transactions to a single  Beneficiary.  A transaction is included in the evaluation based on its qualification with: specified transaction types, a specified time period, the amount exceeds a certain amount, and the cumulative amount of all the transactions meeting these constraints is over a specified amount. Additional constraints include Country, Customer Type, Risk Class, Account Types, Cash/Non-Cash, Branch and Department.  The alert/case will display the account information in the description since the account may not be held at the processing institution. When using Start Date and End Date parameters,Disable the rule or Reset parameter after rule executes. Designed to be run Post-EOD.,1,USR_OMultiOrg,Rule,4,0,NULL,NULL,NULL,UNISYSAD,2016-09-10 08:45:11.263,AMLPRIME,2017-05-26 11:48:34.457,2018-05-01 19:30:16.320,0,0x0000000000E5FA33,1,,0,15,0,1,1,<Params><Param Name="@Period" Alias="Activity Period. Week, Month, Quarter, Semi-Annual, if Blank-Use Date Parameters" Value="Month" /><Param Name="@StartDate" Alias="Start Date for Lookback MM/DD/YYYY. (Leave Period Blank. Disable rule or Reset parameter after rule executes)" Value="" /><Param Name="@EndDate" Alias="End Date for Lookback MM/DD/YYYY. (Leave Period Blank. Disable rule or Reset parameter after rule executes)" Value="" /><Param Name="@minIndCount" Alias="Minimum transaction count" Value="2" /><Param Name="@minIndAmt" Alias="Minimum individual transaction amount" Value="50000" /><Param Name="@maxIndAmt" Alias="Maximum individual transaction amount. For no maximum use -1" Value="-1" /><Param Name="@minSumAmount" Alias="Minimum aggregated transaction amount." Value="0" /><Param Name="@maxSumAmount" Alias="Maximum aggregated transaction amount. For no maximum use -1" Value="-1" /><Param Name="@riskClassList" Alias="List of Risk Classes separated by comma. Use -ALL- for All." Value="-ALL-" /><Param Name="@customerTypeList" Alias="List of Customer Types separated by comma. Use -ALL- for All." Value="E" /><Param Name="@accountTypeList" Alias="List of Account Types separated by comma. Use -ALL- for All." Value="-ALL-" /><Param Name="@activityTypeList" Alias="List of Activity Types separated by comma. Use -ALL- for All." Value="2354,2364,2384,1024,2414,1014" /><Param Name="@countryList" Alias="List of Countries separated by comma. Use -ALL- for All." Value="-ALL-" /><Param Name="@recvpay" Alias="Receive or Pay. 1 for Receive, 2 for Payment, 3 for Both" Value="2" /><Param Name="@branchList" Alias="List of Branches separated by comma. Use -ALL- for All." Value="-ALL-" /><Param Name="@deptList" Alias="List of Departments separated by comma. Use -ALL- for All." Value="-ALL-" /><Param Name="@cashType" Alias="Cash or non-Cash. 1 for Cash, 0 for NonCash, 2 for both" Value="2" /><Param Name="@NumByOrder" Alias="Minimum number of Originators" Value="1" /></Params>,0,1,User Defined,0,0,MulOrg1Bene
CustCntAmtI,Detects Customers with more than X transactions and/or have aggregate greater than or equal to dollar threshold within a specific time frame.,Detects Customers that had more than X Transactions, using a specified activity type(cash,wires etc), that has aggregate equal or greater to dollar threshold, within specified time frame. An alert or SA case is generated for each customer that has more than X transactions and/or the total amount equals or exceeds the threshold amount over a certain time period. Filtered by Customer Type and Risk Class. Designed to be run Post-EOD on a weekly, monthly or quarterly schedule.,1,USR_CustCntAmtI,Rule,0,0,NULL,NULL,NULL,UNISYSAD,2016-12-01 04:32:13.603,0161AP002,2017-08-01 13:09:10.853,2017-07-31 19:30:09.067,0,0x00000000007F6971,1,,0,15,0,1,1,<Params><Param Name="@LastNoOfDays" Alias="Last No Of Days" Value="30" /><Param Name="@ActivityTypeList" Alias="List of activity Types Separated by comma.-ALL- for All." Value="2334,2344,2354,2364,2374,2384,1024,2414" /><Param Name="@ThresholdAmt" Alias="Threshold Amount" Value="300000" /><Param Name="@NoOfTransactions" Alias="No Of Transactions" Value="1" /><Param Name="@RiskClassList" Alias="List of Risk Classes separated by comma. -ALL- for All." Value="-ALL-" /><Param Name="@CustTypeList" Alias="List of Customer Types separated by comma. -ALL- for All." Value="I" /><Param Name="@AmtCompareOper" Alias="Amount/Count Comparison (1 for OR, 2 for AND)" Value="2" /><Param Name="@branchList" Alias="List of Branches separated by comma. Use -ALL- for All." Value="-ALL-" /><Param Name="@deptList" Alias="List of Departments separated by comma. Use -ALL- for All." Value="-ALL-" /></Params>,0,1,User Defined,0,0,CustCntAmt
WirBusCustI,Detect large wire transfers in a single day per customer,Detects wire transfers over a specified amount in a single day per   customer. Designed to be run Pre-EOD.,1,USR_WirBusCustI,Rule,1,1,NULL,NULL,NULL,UNISYSAD,2016-12-01 04:32:13.610,AMLPRIME,2017-09-30 08:13:02.510,2018-05-25 19:30:06.203,0,0x0000000000F415BB,1,,0,15,0,1,1,<Params><Param Name="@MinAmount" Alias="Minimum Amount" Value="500000" /><Param Name="@MaxAmount" Alias="Maximum Amount" Value="-1" /><Param Name="@ActvTypeList" Alias="Activity Types,Comma Seperated(Or -ALL-)" Value="2334,2344,2354,2364,2374,2384,1024,2414" /><Param Name="@CustTypeList" Alias="Customer Types,Comma Separated(Or -ALL-)" Value="I" /><Param Name="@AcctTypeList" Alias="Account Types,Comma Separated(Or -ALL-)" Value="-ALL-" /></Params>,0,1,User Defined,0,0,WirBusCust
WirBusCustE,Detect large wire transfers in a single day per customer,Detects wire transfers over a specified amount in a single day per   customer. Designed to be run Pre-EOD.,1,USR_WirBusCustE,Rule,1,1,NULL,NULL,NULL,UNISYSAD,2016-12-01 04:32:13.610,AMLPRIME,2017-09-30 08:13:02.510,2018-05-25 19:30:06.687,0,0x0000000000F415BF,1,,0,15,0,1,1,<Params><Param Name="@MinAmount" Alias="Minimum Amount" Value="1000000" /><Param Name="@MaxAmount" Alias="Maximum Amount" Value="-1" /><Param Name="@ActvTypeList" Alias="Activity Types,Comma Seperated(Or -ALL-)" Value="2334,2344,2354,2364,2374,2384,1024,2414" /><Param Name="@CustTypeList" Alias="Customer Types,Comma Separated(Or -ALL-)" Value="E" /><Param Name="@AcctTypeList" Alias="Account Types,Comma Separated(Or -ALL-)" Value="-ALL-" /></Params>,0,1,User Defined,0,0,WirBusCust
CustCntAmtE,Detects Customers with more than X transactions and/or have aggregate greater than or equal to dollar threshold within a specific time frame.,Detects Customers that had more than X Transactions, using a specified activity type(cash,wires etc), that has aggregate equal or greater to dollar threshold, within specified time frame. An alert or SA case is generated for each customer that has more than X transactions and/or the total amount equals or exceeds the threshold amount over a certain time period. Filtered by Customer Type and Risk Class. Designed to be run Post-EOD on a weekly, monthly or quarterly schedule.,1,USR_CustCntAmtE,Rule,0,0,NULL,NULL,NULL,UNISYSAD,2016-12-01 04:32:13.607,0161AP002,2017-07-28 12:01:52.757,2017-07-27 19:30:08.640,0,0x00000000007F697A,1,,0,15,0,1,1,<Params><Param Name="@LastNoOfDays" Alias="Last No Of Days" Value="30" /><Param Name="@ActivityTypeList" Alias="List of activity Types Separated by comma.-ALL- for All." Value="2334,2344,2354,2364,2374,2384,1024,2414" /><Param Name="@ThresholdAmt" Alias="Threshold Amount" Value="2000000" /><Param Name="@NoOfTransactions" Alias="No Of Transactions" Value="5" /><Param Name="@RiskClassList" Alias="List of Risk Classes separated by comma. -ALL- for All." Value="-ALL-" /><Param Name="@CustTypeList" Alias="List of Customer Types separated by comma. -ALL- for All." Value="E" /><Param Name="@AmtCompareOper" Alias="Amount/Count Comparison (1 for OR, 2 for AND)" Value="2" /><Param Name="@branchList" Alias="List of Branches separated by comma. Use -ALL- for All." Value="-ALL-" /><Param Name="@deptList" Alias="List of Departments separated by comma. Use -ALL- for All." Value="-ALL-" /></Params>,0,1,User Defined,0,0,CustCntAmt
PEPACT,Detects Activity in PEP/FEP/MSB Accounts,Provides automated monitoring of all PEP/FEP/MSB customer activity  by utilizing the PEP/FEP/MSB Flag on the Customer Records.Additional constraints  include Customer types, RiskClass and Activity types.Designed to be run Pre-EOD.,1,USR_PEPACT,Rule,1,1,NULL,NULL,NULL,UNISYSAD,2016-12-01 04:32:13.613,AMLPRIME,2017-09-30 08:13:02.510,2018-05-25 19:30:07.110,0,0x0000000000F415C3,1,,0,15,0,1,1,<Params><Param Name="@PEPFEPMSB" Alias="PEP/FEP/MSB" Value="PEP" /><Param Name="@CustTypeList" Alias="Comma separated list of Customer Types (-ALL- for all)" Value="-ALL-" /><Param Name="@RiskClassList" Alias="Comma separated list of Risk Classes (-ALL- for all)" Value="-ALL-" /><Param Name="@ActivityTypeList" Alias="Comma separated list of Activity Types (-ALL- for all)" Value="2334,2344,2354,2364,2374,2384,2414" /></Params>,0,1,User Defined,0,0,PepFepMsb
PepAcctAct,Detects Activity in PEP/FEP/MSB Accounts over the last X days,Provides automated monitoring of all PEP/FEP/MSB customer activity within the specified period by utilizing the PEP/FEP/MSB Flag on the Customer Records. Additional constraints include Customer types, RiskClasses,Activity types and total amount equals or exceeds a specified threshold amount. Designed to be run Post-EOD.,1,USR_PepAcctAct,Rule,4,0,NULL,NULL,NULL,UNISYSAD,2016-12-01 04:32:13.620,AMLPRIME,2016-12-19 08:15:21.660,2018-05-01 19:30:16.900,0,0x0000000000E5FA43,1,,0,15,0,1,1,<Params><Param Name="@PEPFEPMSB" Alias="PEP/FEP/MSB" Value="PEP" /><Param Name="@CustTypeList" Alias="Comma separated list of Customer Types(-ALL- for all)" Value="-ALL-" /><Param Name="@RiskClassList" Alias="Comma separated list of Risk Classes(-ALL- for all)" Value="-ALL-" /><Param Name="@ActivityTypeList" Alias="Comma separated list of Activity Types(-ALL- for all)" Value="2334,2344,2354,2364,2374,2384,1024,2414" /><Param Name="@MinTotalAmount" Alias="The threshold amount the sum of activity should exceed. (-1 if no minimum)" Value="-1" /><Param Name="@Days" Alias="Number of days" Value="30" /></Params>,0,1,User Defined,0,0,PFMActHist
1MthExcAvgI,Detect Accounts with transactions exceeding average monthly total by specified amount within 1 calendar month.,Detects Accounts that had transactions using a specified activity type and the total of these transactions for the month exceeds the average monthly volume of specified period (in months) by specified amount. Designed to be run Post-EOD on a weekly, monthly or quarterly schedule.,1,USR_1MthExcAvgI,Rule,0,0,NULL,NULL,NULL,UNISYSAD,2016-12-01 04:32:13.620,0161AP002,2017-08-15 15:28:35.130,2017-08-01 19:30:45.517,0,0x00000000007F6983,1,,0,15,0,1,1,<Params><Param Name="@activityTypeList" Alias="List of Activity Types separated by Comma. -ALL- for All." Value="2334,2344,2354,2364,2374,2384,1024,2414" /><Param Name="@CustTypeList" Alias="List of Customer Types separated by Comma. -ALL- for All." Value="I" /><Param Name="@RiskClassList" Alias="List of Risk Classes separated by Comma. -ALL- for All." Value="-ALL-" /><Param Name="@TypeOfBusinessList" Alias="List of Type of Businesses separated by Comma. -ALL- for All." Value="-ALL-" /><Param Name="@BranchList" Alias="List of Branches separated by Comma. -ALL- for All." Value="-ALL-" /><Param Name="@RecvPay" Alias="Receive/Pay flag. 1 - for Receive, 2 - Pay, 3 - both" Value="3" /><Param Name="@NumMonths" Alias="Number of Months." Value="6" /><Param Name="@ExcAmtThreshold" Alias="Exceed Average Amount Threshold" Value="50000" /><Param Name="@InclLastMth" Alias="Include Last Month in Average 1-Yes 0-No" Value="0" /></Params>,0,1,User Defined,0,0,1MthExcAvg
1MthExcAvgE,Detect Accounts with transactions exceeding average monthly total by specified amount within 1 calendar month.,Detects Accounts that had transactions using a specified activity type and the total of these transactions for the month exceeds the average monthly volume of specified period (in months) by specified amount. Designed to be run Post-EOD on a weekly, monthly or quarterly schedule.,1,USR_1MthExcAvgE,Rule,0,0,NULL,NULL,NULL,UNISYSAD,2016-12-01 04:32:13.623,0161AP002,2017-08-15 15:26:13.730,2017-08-01 19:30:46.517,0,0x00000000007F6986,1,,0,15,0,1,1,<Params><Param Name="@activityTypeList" Alias="List of Activity Types separated by Comma. -ALL- for All." Value="2334,2344,2354,2364,2374,2384,1024,2414" /><Param Name="@CustTypeList" Alias="List of Customer Types separated by Comma. -ALL- for All." Value="E" /><Param Name="@RiskClassList" Alias="List of Risk Classes separated by Comma. -ALL- for All." Value="-ALL-" /><Param Name="@TypeOfBusinessList" Alias="List of Type of Businesses separated by Comma. -ALL- for All." Value="-ALL-" /><Param Name="@BranchList" Alias="List of Branches separated by Comma. -ALL- for All." Value="-ALL-" /><Param Name="@RecvPay" Alias="Receive/Pay flag. 1 - for Receive, 2 - Pay, 3 - both" Value="3" /><Param Name="@NumMonths" Alias="Number of Months." Value="6" /><Param Name="@ExcAmtThreshold" Alias="Exceed Average Amount Threshold" Value="250000" /><Param Name="@InclLastMth" Alias="Include Last Month in Average 1-Yes 0-No" Value="0" /></Params>,0,1,User Defined,0,0,1MthExcAvg
KeywordAct,Keyword Search on Party Names/Notes/Instructions fields of archived activity.,Performs a keyword search on Party Names/Notes/Instructions fields of archived activity table.  An Alert or Case is generated where a match is found in the activity for a given customer/account combination.  Designed to be run daily, weekly, monthly or quarterly on a Post-EOD Schedule,1,USR_KeywordAct,Rule,2,0,NULL,NULL,NULL,UNISYSAD,2016-12-01 04:32:13.627,AMLPRIME,2017-09-30 08:13:02.510,2018-05-25 19:30:11.720,0,0x0000000000F41761,1,,0,15,0,1,1,<Params><Param Name="@KeywordList" Alias="List of Keywords separated by comma" Value="ISIS,ISIL,AI Qaeda,Saqqez,Jihad" /><Param Name="@ActivityTypeList" Alias="List of Activity Types separated by comma. -ALL- for All." Value="2334,2344,2354,23640,2374,2384,1034,1024,2414,1014" /><Param Name="@RecvPay" Alias="1 for Deposits, 2 for Withdrawals, 3 for All" Value="3" /><Param Name="@MinTotalAmount" Alias="The threshold amount the sum of activity should exceed" Value="-1" /><Param Name="@MinTranAmt" Alias="Minimum Amount" Value="-1" DataType="Money"/><Param Name="@MinTranCnt" Alias="No. of Transactions" Value="1" DataType="Int"/>      <Param Name="@CustomerTypeList" Alias="List of Customer Types (-ALL- for all)" Value="-ALL-" DataType="String"/>      <Param Name="@AccountTypeList" Alias="List of Account Types (-ALL- for all)" Value="-ALL-" DataType="String"/><Param Name="@LastNoOfDays" Alias="No of Days" Value="1" /></Params>,0,1,User Defined,0,0,Keyword
BankHRCty,Detects transactions, for which any of the country party or the addressfield is from the given list of countries and creates alert/case at the customer level.,Detects transactions, for which any of the country party or the address field is from the given list of countries, and creates alert/case at the customer level. A transaction is included in the evaluation based on its qualification with: specified transaction types, a specified time period, the amount is in a specified range,the country field on the transaction is not in the specified country fields of the customer, and the cumulative amount of all the transactions meeting these constraints is in a specified range and the cumulative count is not less than the specified count.  Additional constraints include: Customer Type, Risk Class, Account Types, Activity Types, Cash/Non-Cash, Branch and Department. The alert/case will display the account information in the description since the account may not be held at the processing institution, and the distinct countries from the list that were found in the transactions. Designed to be run Post-EOD. When using Start Date and End Date parameters, Disable the rule or Reset parameter after rule executes,1,USR_BankHRCty,Rule,4,0,NULL,NULL,NULL,UNISYSAD,2016-12-01 04:32:13.630,AMLPRIME,2017-09-22 17:07:48.010,2018-05-01 19:30:17.570,0,0x0000000000E5FA4B,1,,0,15,0,1,1,<Params><Param Name="@Period" Alias="Activity Period. Week, Month, Quarter, Semi-Annual, if Blank-Use Date Parameters" Value="Month" /><Param Name="@StartDate" Alias="Start Date for Lookback MM/DD/YYYY. (Leave Period Blank. Disable rule or Reset parameter after rule executes)" Value="" /><Param Name="@EndDate" Alias="End Date for Lookback MM/DD/YYYY. (Leave Period Blank. Disable rule or Reset parameter after rule executes)" Value="" /><Param Name="@minIndCount" Alias="Minimum transaction count" Value="1" /><Param Name="@minIndAmt" Alias="Minimum individual transaction amount" Value="0" /><Param Name="@maxIndAmt" Alias="Maximum individual transaction amount. For no maximum use -1" Value="-1" /><Param Name="@minSumAmount" Alias="Minimum aggregated transaction amount." Value="0" /><Param Name="@maxSumAmount" Alias="Maximum aggregated transaction amount. For no maximum use -1" Value="-1" /><Param Name="@riskClassList" Alias="List of Risk Classes separated by comma. Use -ALL- for All." Value="-ALL-" /><Param Name="@customerTypeList" Alias="List of Customer Types separated by comma. Use -ALL- for All." Value="B" /><Param Name="@accountTypeList" Alias="List of Account Types separated by comma. Use -ALL- for All." Value="-ALL-" /><Param Name="@activityTypeList" Alias="List of Activity Types separated by comma. Use -ALL- for All." Value="1014" /><Param Name="@countryList" Alias="List of Countries separated by comma. Use -ALL- for All." Value="-ALL-" /><Param Name="@UseMonitor" Alias="Use Monitor Field in Country Table. 1 for Yes, 0 for No" Value="1" /><Param Name="@recvpay" Alias="Receive or Pay. 1 for Receive, 2 for Payment, 3 for Both" Value="3" /><Param Name="@branchList" Alias="List of Branches separated by comma. Use -ALL- for All." Value="-ALL-" /><Param Name="@deptList" Alias="List of Departments separated by comma. Use -ALL- for All." Value="-ALL-" /><Param Name="@cashType" Alias="Cash or non-Cash. 1 for Cash, 0 for NonCash, 2 for both" Value="0" /><Param Name="@ExcludeTranbyCustCtryCode" Alias="Exclude Transactions on Customer Country.&#xD;&#xA;          0 - Do not exclude,1 - By customer country,&#xD;&#xA;          2 - By Any customer country" Value="0" /><Param Name="@IncludeAddressFields" Alias="Include Address Fields to match on country.&#xD;&#xA;          0 - Do not Include,1 - Include" Value="0" /><Param Name="@UseRound" Alias="Indicate if only the high round amounts have to considered.&#xD;&#xA;          0 - Do not round,1 - Round" Value="0" /><Param Name="@Precision" Alias="Precision for rounding. Specify 3 for 1000, 2 for 100" Value="3" /></Params>,0,1,User Defined,0,0,HghRiskCtry
HRCty,Detects transactions, for which any of the country party or the addressfield is from the given list of countries and creates alert/case at the customer level.,Detects transactions, for which any of the country party or the address field is from the given list of countries, and creates alert/case at the customer level. A transaction is included in the evaluation based on its qualification with: specified transaction types, a specified time period, the amount is in a specified range,the country field on the transaction is not in the specified country fields of the customer, and the cumulative amount of all the transactions meeting these constraints is in a specified range and the cumulative count is not less than the specified count.  Additional constraints include: Customer Type, Risk Class, Account Types, Activity Types, Cash/Non-Cash, Branch and Department. The alert/case will display the account information in the description since the account may not be held at the processing institution, and the distinct countries from the list that were found in the transactions. Designed to be run Post-EOD. When using Start Date and End Date parameters, Disable the rule or Reset parameter after rule executes,1,USR_HRCty,Rule,3,0,NULL,NULL,NULL,UNISYSAD,2016-09-10 08:45:11.273,AMLPRIME,2016-12-19 08:15:21.660,2018-05-21 19:30:15.200,0,0x0000000000F0FBA7,1,,0,15,0,1,1,<Params><Param Name="@Period" Alias="Activity Period. Week, Month, Quarter, Semi-Annual, if Blank-Use Date Parameters" Value="Week" /><Param Name="@StartDate" Alias="Start Date for Lookback MM/DD/YYYY. (Leave Period Blank. Disable rule or Reset parameter after rule executes)" Value="" /><Param Name="@EndDate" Alias="End Date for Lookback MM/DD/YYYY. (Leave Period Blank. Disable rule or Reset parameter after rule executes)" Value="" /><Param Name="@minIndCount" Alias="Minimum transaction count" Value="1" /><Param Name="@minIndAmt" Alias="Minimum individual transaction amount" Value="0" /><Param Name="@maxIndAmt" Alias="Maximum individual transaction amount. For no maximum use -1" Value="-1" /><Param Name="@minSumAmount" Alias="Minimum aggregated transaction amount." Value="0" /><Param Name="@maxSumAmount" Alias="Maximum aggregated transaction amount. For no maximum use -1" Value="-1" /><Param Name="@riskClassList" Alias="List of Risk Classes separated by comma. Use -ALL- for All." Value="-ALL-" /><Param Name="@customerTypeList" Alias="List of Customer Types separated by comma. Use -ALL- for All." Value="-ALL-" /><Param Name="@accountTypeList" Alias="List of Account Types separated by comma. Use -ALL- for All." Value="-ALL-" /><Param Name="@activityTypeList" Alias="List of Activity Types separated by comma. Use -ALL- for All." Value="1034,1044,1014,1024" /><Param Name="@countryList" Alias="List of Countries separated by comma. Use -ALL- for All." Value="-ALL-" /><Param Name="@UseMonitor" Alias="Use Monitor Field in Country Table. 1 for Yes, 0 for No" Value="1" /><Param Name="@recvpay" Alias="Receive or Pay. 1 for Receive, 2 for Payment, 3 for Both" Value="3" /><Param Name="@branchList" Alias="List of Branches separated by comma. Use -ALL- for All." Value="-ALL-" /><Param Name="@deptList" Alias="List of Departments separated by comma. Use -ALL- for All." Value="-ALL-" /><Param Name="@cashType" Alias="Cash or non-Cash. 1 for Cash, 0 for NonCash, 2 for both" Value="2" /><Param Name="@ExcludeTranbyCustCtryCode" Alias="Exclude Transactions on Customer Country.&#xD;&#xA;										0 - Do not exclude,1 - By customer country,&#xD;&#xA;										2 - By Any customer country" Value="0" /><Param Name="@IncludeAddressFields" Alias="Include Address Fields to match on country.&#xD;&#xA;										0 - Do not Include,1 - Include" Value="0" /><Param Name="@UseRound" Alias="Indicate if only the high round amounts have to considered.&#xD;&#xA;										0 - Do not round,1 - Round" Value="0" /><Param Name="@Precision" Alias="Precision for rounding. Specify 3 for 1000, 2 for 100" Value="0" /></Params>,0,1,User Defined,0,0,HghRiskCtry
AcctXOvrY,Detects accounts that had transactions using a specified activity type that exceeded a designated dollar amount over a period of specified days,Detects accounts that had transactions using a specified activity type that exceeded a designated dollar amount over a period of specified days.  Designed to be run Post-EOD.,1,USR_AcctXOvrY,Rule,0,0,NULL,NULL,NULL,UNISYSAD,2016-12-01 04:32:13.563,0161AP002,2017-08-03 13:40:38.813,2017-08-01 19:30:41.450,0,0x00000000007F6950,1,,0,15,0,1,1,<Params><Param Name="@activityTypeList" Alias="List of Activity Types. -ALL- for all" Value="2334,2344,2354,2364,2374,2384,2414" /><Param Name="@day" Alias="Number of Days" Value="31" /><Param Name="@minimumAmount" Alias="Minimum Amount" Value="250000" /><Param Name="@AccountList" Alias="Accounts (Comma Separated or '-ALL-')" Value="-ALL-" /><Param Name="@BranchList" Alias="Branches (Comma Separated or '-ALL-')" Value="-ALL-" /><Param Name="@DeptList" Alias="Departments (Comma Separated or '-ALL-')" Value="-ALL-" /><Param Name="@CorrespondentBankOnly" Alias="Correspondent Banks Only (Yes/No)" Value="No" /></Params>,0,1,User Defined,0,0,AcctXOverY
AcctXCaY,Detects accounts that have cash transactions that exceed amount within a specified number of days,Detects accounts that have cash transactions that exceed a designated   dollar amount within a specified number of days. Designed to be run Post-EOD.,1,USR_AcctXCaY,Rule,4,0,NULL,NULL,NULL,UNISYSAD,2016-12-01 04:32:13.573,AMLPRIME,2016-12-19 08:15:21.660,2018-05-01 19:30:17.963,0,0x0000000000E5FAA9,1,,0,15,0,1,1,<Params><Param Name="@day" Alias="Number of Days" Value="31" /><Param Name="@CTRAmount" Alias="CTR Amount" Value="25000" /></Params>,0,1,User Defined,0,0,AcctXCashY
DomToActive,Detects accounts that have been dormant then become active,Detects accounts that have been dormant for at least a specified number of days and then becomes active. Designed to be run Pre-EOD.,1,USR_DomToActive,Rule,1,1,NULL,NULL,NULL,UNISYSAD,2016-12-01 04:32:13.577,AMLPRIME,2017-09-30 08:13:02.510,2018-05-25 19:30:07.470,0,0x0000000000F415C7,1,,0,15,0,1,1,<Params><Param Name="@day" Alias="Day" Value="90" /><Param Name="@branchlist" Alias="Branches" Value="-ALL-" /><Param Name="@deptlist" Alias="Departments" Value="-ALL-" /><Param Name="@ThresholdAmt" Alias="ThresholdAmount" Value="50000" /><Param Name="@ActvTypeList" Alias="Comma seperated list of activity types to be included. -ALL- for all" Value="2334,2344,2354,2364,2374,2384,1034,1044,1014,1024,2414" /><Param Name="@ExcludeActvTypeList" Alias="Comma seperated list of activity types to be excluded. -NONE- for none." Value="-NONE-" /></Params>,0,1,User Defined,0,0,DormToAct
LoanRepayY,Detects a loan taken from product (account type) X and Y% is repaid within Z months.,Detects a loan taken from product (account type) X and Y% is repaid within Z months.  Designed to be run Pre-EOD.,1,USR_LoanRepayY,Rule,1,1,NULL,NULL,NULL,UNISYSAD,2016-12-01 04:32:13.580,AMLPRIME,2017-09-30 08:13:02.510,2018-05-25 19:30:08.050,0,0x0000000000F415DE,1,,0,15,0,1,1,<Params><Param Name="@activityTypeIn" Alias="List of Deposit Activity Types (Repayment). -ALL- for all" Value="-ALL-" /><Param Name="@activityTypeOut" Alias="List of Withdrawal Activity Types (Loan). -ALL- for all" Value="2014,2024,2034,2044,2094,2104,2114,2124" /><Param Name="@productType" Alias="List of Products (Account Types) X. -ALL- for all" Value="-ALL-" /><Param Name="@percent" Alias="Y Percent" Value="10" /><Param Name="@month" Alias="Z Months" Value="12" /><Param Name="@RiskClass" Alias="List of RiskClasses. -ALL- for all" Value="-ALL-" /></Params>,0,1,User Defined,0,0,LoanRepayYP
NCustActivt,Monitors Activity for new customers,Monitors new customer activity for an initial period and displays the aggregated values for amounts and counts. When the customer completes the initial period, the system will suggest the profile values for In/Out amounts and counts based on average during the initial period. Accepts comma separated risk class codes. Use '-ALL-' for all Risk Classes. Designed to run Pre-Eod.,1,USR_NCustActivt,Rule,1,1,NULL,NULL,NULL,UNISYSAD,2016-12-01 04:32:13.583,AMLPRIME,2017-09-30 08:13:02.510,2018-05-25 19:30:08.300,0,0x0000000000F415E2,1,,0,15,0,1,1,<Params><Param Name="@RiskClassList" Alias="Risk Class" Value="-ALL-" /><Param Name="@InitialTimeFrame" Alias="Initial Period (days)" Value="90" /><Param Name="@AvgPeriod" Alias="Average Period (days)" Value="30" /><Param Name="@GenerateAlertsBeforeInitialTimeFrame" Alias="Generate Alerts for activity before the Initial Period(1 for Yes 0 for No)" Value="1" /><Param Name="@MinimumAmount" Alias="Minimum Amount" Value="150000" /></Params>,0,1,User Defined,0,0,NCustProAct
StrCashDepC,Detects structuring of cash deposits to avoid CTR reporting,Detects structuring of cash deposits to an account in order to avoid CTR reporting.  An Alert or SA case is created for each account that has cash deposits being structured   and the total amount deposited exceeds a specified maximum  dollar amount over a certain    time period.  Designed to be run Post-EOD on a monthly or quarterly schedule.,1,USR_StrCashDepC,Rule,4,0,NULL,NULL,NULL,UNISYSAD,2016-12-01 04:32:13.587,AMLPRIME,2017-02-22 11:02:08.110,2018-05-01 19:30:18.230,0,0x0000000000E5FAB6,1,,0,15,0,1,1,<Params><Param Name="@CTRAmount" Alias="CTR Amount" Value="25000" /><Param Name="@LastNoOfMonths" Alias="Last No Of Months" Value="2" /><Param Name="@MinTotalCTRAmount" Alias="Min Total CTR Amount" Value="17500" /><Param Name="@Tolerance" Alias="Tolerance" Value="30" /></Params>,0,1,User Defined,0,0,StructCTR
ActXAmtCnt,Detects accounts with more than X transactions that have aggregate greater than or equal to dollar threshold within a specific time frame.,Detects acounts that had more than X Transactions,using a specified activity type(cash,wires etc),that has aggregate equal or greater   to dollar threshold, within X time frame.An alert or SA case is generated for each account that has more than X transactions and the total  amount equals or exceeds the threshold amount over a certain time period.Designed to be run Post-EOD on a weekly,monthly or quarterly schedule.,1,USR_ActXAmtCnt,Rule,0,0,NULL,NULL,NULL,UNISYSAD,2016-12-01 04:32:13.590,0161AP002,2017-07-28 11:56:42.743,2017-07-25 19:30:08.933,0,0x00000000007F6962,1,,0,15,0,1,1,<Params><Param Name="@LastNoOfDays" Alias="Last No Of Days" Value="31" /><Param Name="@ActivityTypeList" Alias="List of activity Types Separated by comma.-ALL- for All." Value="1044,1024,2334,2344,2354,2364,2374,2384,2214,2224,2414" /><Param Name="@ThresholdAmt" Alias="Threshold Amount" Value="1000000" /><Param Name="@NoOfTransactions" Alias="No Of Transactions" Value="1" /></Params>,0,1,User Defined,0,0,ActXCntAmt
N3rdPartyY,Detects a deposit W received and Y% is transferred within Z months to an unrelated third party.,Detects a deposit W received and Y% is transferred within Z months to an unrelated third party.  Designed to be run Pre-EOD.,1,USR_N3rdPartyY,Rule,1,1,NULL,NULL,NULL,UNISYSAD,2016-12-01 04:32:13.590,AMLPRIME,2017-09-30 08:13:02.510,2018-05-25 19:30:08.800,0,0x0000000000F416E5,1,,0,15,0,1,1,<Params><Param Name="@productType" Alias="Product (Account Type) X" Value="Q,K" /><Param Name="@percent" Alias="Y Percent" Value="50" /><Param Name="@month" Alias="Z Months" Value="1" /><Param Name="@RiskClass" Alias="Riskclass" Value="-ALL-" /></Params>,0,1,User Defined,0,0,Unrel3rdpty
PayMulToBen,Detects multiple originators sending to a single Beneficiary,Detects multiple originators sending transactions using specified activity types   to a single Beneficiary over a specified time period and the total of these transactions   is within a designated dollar amount range.  The alert/case will display   the account information in the description since the account may not be held at   the processing institution. Filtered by country and account types.  Designed to be run Post-EOD.,1,USR_PayMulToBen,Rule,4,0,NULL,NULL,NULL,UNISYSAD,2016-12-01 04:32:13.593,AMLPRIME,2017-02-22 11:27:09.657,2018-05-01 19:30:18.430,0,0x0000000000E5FAC0,1,,0,15,0,1,1,<Params><Param Name="@ActivityTypeList" Alias="List of Activity Types. -ALL- for all" Value="2354,2364,2384,1044" /><Param Name="@CountryList" Alias="List Of Countries. -ALL- for all" Value="-ALL-" /><Param Name="@AccountTypeList" Alias="List Of Account Types. -ALL- for all" Value="-ALL-" /><Param Name="@minimumAmount" Alias="Minimum Amount" Value="10000" /><Param Name="@maximumAmount" Alias="Maximum Amount  (-1 for no limit)" Value="-1" /><Param Name="@minimumCount" Alias="Minimum Count" Value="2" /><Param Name="@day" Alias="Number of Days" Value="30" /><Param Name="@recvpay" Alias="Receive (1) or Pay (2)" Value="2" /><Param Name="@branchList" Alias="List of Branches. -ALL- for all" Value="-ALL-" /><Param Name="@deptList" Alias="List of Departments. -ALL- for all" Value="-ALL-" /></Params>,0,1,User Defined,0,0,PayMulByOrd
WithDraw,Detect transactions of activity type after cash deposits,Detects transactions of a selected activity type after cash deposits,   where most of the deposited cash is withdrawn in a specified time period.   Designed to be run Post-EOD on a montly or quarterly schedule.,1,USR_WithDraw,Rule,4,0,NULL,NULL,NULL,UNISYSAD,2016-12-01 04:32:13.597,AMLPRIME,2016-12-19 08:15:21.660,2018-05-01 19:30:19.680,0,0x0000000000E5FAD6,1,,0,15,0,1,1,<Params><Param Name="@ActivityTypeList" Alias="List of activity Types Separated by comma. -ALL- for All." Value="2334,2344,2354,2364,2374,2384,1024,2414" /><Param Name="@LastNoOfMonths" Alias="Last No Of Months" Value="1" /><Param Name="@Tolerance" Alias="Tolerance" Value="20" /></Params>,0,1,User Defined,0,0,WithDrawDep
NoUsedAcct,Detects Activity using Transaction codes that are not active.,Provides automated monitoring of activity types that have not been designated for use.   Customer, account, type and value are specified each time a transaction is detected designated for a type other than those specified.,1,USR_NoUsedAcct,Rule,1,1,NULL,NULL,NULL,UNISYSAD,2016-12-01 04:32:13.600,AMLPRIME,2017-09-30 08:13:02.510,2018-05-25 19:30:08.860,0,0x0000000000F416E9,1,,0,15,0,1,1,<Params><Param Name="@ActivityTypeList" Alias="List of Active ActivityTypes" Value="1014,1024,1034,1044,1054,2014,2024,2034,2044,2094,2104,2124,2214,2224,2334,2354,2374,2384,2414,2514,2524" /><Param Name="@MinAmount" Alias="Minimum Amount for the activity to be monitored" Value="0" /></Params>,0,1,User Defined,0,0,UnusedAct
UAcctMthVol,Detects accounts where transactions of specified activity types exceed certain transaction count,amount and average monthly volume for specified period (in months) by a certain multiple. ,Detects accounts where monthly volume of transactions of specified activity types exceed average monthly volume for specified period (in months) by a certain multiple. The transactions of accounts detected also need to exceed monthly transaction count and aggregated dollar amount thresholds. Designed to be run Post-EOD on a weekly, monthly or quarterly schedule.,1,USR_UAcctMthVol,Rule,0,0,NULL,NULL,NULL,UNISYSAD,2016-09-10 08:45:11.167,0161AP002,2017-08-15 15:34:04.770,2017-08-01 19:30:20.417,0,0x00000000007F6929,1,,0,15,0,1,1,<Params><Param Name="@activityTypeList" Alias="Type of activity to be detected. -ALL- for All." Value="2334,2344,2354,2364,2374,2384,2414" /><Param Name="@CustTypeList" Alias="List of Customer Types separated by Comma. -ALL- for All." Value="-ALL-" /><Param Name="@RecvPay" Alias="Receive/Pay flag. 1 - for Receive, 2 - Pay, 3 - both" Value="3" /><Param Name="@minTotalAmount" Alias="Aggregate amount threshold." Value="150000" /><Param Name="@minCount" Alias="Aggregate monthly volume threshold." Value="1" /><Param Name="@NumMonths" Alias="Number of Months." Value="12" /><Param Name="@avgCount" Alias="Aggregate monthly volume threshold/average monthly volume of specified period" Value="1" /><Param Name="@InclLastMth" Alias="Include Last Month in Average 1-Yes 0-No" Value="1" /></Params>,0,1,User Defined,0,0,AcctMnthVol
ILgTrans90,Detects customers that had transactions matching the specified criteria within the last X days.,Detects customers that had transactions matching the specified criteria within the last X days. Can be used to monitor for structured cash transactions or specific types of transactions such as ATM withdrawals.  Designed to be run Post-EOD (i.e. This rule excludes Current activity) 

Individual transactions must be greater than Minimum Transaction Amount AND less than Maximum Transaction Amount and must also match values specified for Customer, Customer Type, Risk Class, Account Type, Branch and Department. 

When using the Cash CashTran Indicator parameter, 
    1 = Ignore the Cash Tran indicator, 
    2 = include any transaction where the Cash Tran indicator is Yes OR that matches a specified Activity Type, 
    3 = include any transaction where the Cash Tran indicator is Yes AND that matches a specified Activity Type. 

Specify Number of days as 0(zero) for current date.

When using the Exclude Exempt parameter, customers will be excluded from evaluation if their Exemption Type is included in the comma separated list or if -ALL- is entered AND if the Exemption Type is configured as exempt from rules. 

The grand total amount of selected transactions must be greater than the Minimum Total Transaction Amount AND less than the Maximum Total Transaction Amount.,1,USR_ILgTrans90,Rule,0,0,NULL,NULL,NULL,UNISYSAD,2016-09-10 08:45:11.180,0161AP002,2017-11-01 09:22:11.947,2017-10-02 19:30:19.843,0,0x00000000008B6E20,1,,0,15,0,1,1,<Params><Param Name="@excludeExemptCustList" Alias="Exclude Exempt (comma separated list, -ALL- or -NONE-)" Value="-NONE-" DataType="" /><Param Name="@activityTypeList" Alias="Activity Types to be included (comma separated list, -ALL- or -NONE-)" Value="1024,2334,2344,2354,2364,2374,2384,2414" DataType="" /><Param Name="@activityTypeExcludeList" Alias="Activity Types to be excluded (comma separated list or -NONE-) " Value="-NONE-" DataType="" /><Param Name="@cashTranIndicator" Alias="Use CashTran indicator (1-Ignore,2-Yes OR Trans matches Activity Type,3-Yes AND Trans matches Activity Type)" Value="1" DataType="" /><Param Name="@day" Alias="Number of Days" Value="90" DataType="" /><Param Name="@minimumTotalAmount" Alias="Minimum Total Transaction Amount (-1 if no minimum)" Value="1200000" DataType="" /><Param Name="@maximumTotalAmount" Alias="Maximum Total Transaction Amount (-1 if no maximum)" Value="-1" DataType="" /><Param Name="@minimumAmount" Alias="Minimum Transaction Amount (-1 if no minimum)" Value="-1" DataType="" /><Param Name="@maximumAmount" Alias="Maximum Transaction Amount (-1 if no maximum)" Value="-1" DataType="" /><Param Name="@minimumcount" Alias="Minimum Total Transaction Count" Value="1" DataType="" /><Param Name="@customerList" Alias="Customer (comma separated list or -ALL-)" Value="-ALL-" DataType="" /><Param Name="@RiskClassList" Alias="Risk Class (comma separated list or -ALL-)" Value="-ALL-" DataType="" /><Param Name="@CustomerTypeList" Alias="Customer Type (comma separated list or -ALL-)" Value="I" DataType="" /><Param Name="@AccountTypeList" Alias="Account Type (comma separated list or -ALL-)" Value="-ALL-" DataType="" /><Param Name="@BranchList" Alias="Branch (comma separated list or -ALL-)" Value="-ALL-" DataType="" /><Param Name="@DeptList" Alias="Department (comma separated list or -ALL-)" Value="-ALL-" DataType="" /><Param Name="@UseRelAcct" Alias="Include Related Accounts (1=yes, 0=no) " Value="0" DataType="" /><Param Name="@UseRelCust" Alias="Include Related Parties (1=yes, 0=no) " Value="0" DataType="" /><Param Name="@ExcludeRelList" Alias="Exclude Relationship Types (comma separated list or -NONE-)" Value="-NONE-" DataType="" /></Params>,0,1,User Defined,0,0,CustXOverY
OLgTrans90,Detects customers that had transactions matching the specified criteria within the last X days.,Detects customers that had transactions matching the specified criteria within the last X days. Can be used to monitor for structured cash transactions or specific types of transactions such as ATM withdrawals.  Designed to be run Post-EOD (i.e. This rule excludes Current activity) 

Individual transactions must be greater than Minimum Transaction Amount AND less than Maximum Transaction Amount and must also match values specified for Customer, Customer Type, Risk Class, Account Type, Branch and Department. 

When using the Cash CashTran Indicator parameter, 
    1 = Ignore the Cash Tran indicator, 
    2 = include any transaction where the Cash Tran indicator is Yes OR that matches a specified Activity Type, 
    3 = include any transaction where the Cash Tran indicator is Yes AND that matches a specified Activity Type. 

Specify Number of days as 0(zero) for current date.

When using the Exclude Exempt parameter, customers will be excluded from evaluation if their Exemption Type is included in the comma separated list or if -ALL- is entered AND if the Exemption Type is configured as exempt from rules. 

The grand total amount of selected transactions must be greater than the Minimum Total Transaction Amount AND less than the Maximum Total Transaction Amount.,1,USR_OLgTrans90,Rule,0,0,NULL,NULL,NULL,UNISYSAD,2016-09-10 08:45:11.190,0161AP002,2017-11-01 09:14:34.340,2017-10-02 19:30:21.033,0,0x00000000008B6E18,1,,0,15,0,1,1,<Params><Param Name="@excludeExemptCustList" Alias="Exclude Exempt (comma separated list, -ALL- or -NONE-)" Value="-NONE-" DataType="" /><Param Name="@activityTypeList" Alias="Activity Types to be included (comma separated list, -ALL- or -NONE-)" Value="1024,2334,2344,2354,2364,2374,2384,2414" DataType="" /><Param Name="@activityTypeExcludeList" Alias="Activity Types to be excluded (comma separated list or -NONE-) " Value="-NONE-" DataType="" /><Param Name="@cashTranIndicator" Alias="Use CashTran indicator (1-Ignore,2-Yes OR Trans matches Activity Type,3-Yes AND Trans matches Activity Type)" Value="1" DataType="" /><Param Name="@day" Alias="Number of Days" Value="90" DataType="" /><Param Name="@minimumTotalAmount" Alias="Minimum Total Transaction Amount (-1 if no minimum)" Value="3000000" DataType="" /><Param Name="@maximumTotalAmount" Alias="Maximum Total Transaction Amount (-1 if no maximum)" Value="-1" DataType="" /><Param Name="@minimumAmount" Alias="Minimum Transaction Amount (-1 if no minimum)" Value="-1" DataType="" /><Param Name="@maximumAmount" Alias="Maximum Transaction Amount (-1 if no maximum)" Value="-1" DataType="" /><Param Name="@minimumcount" Alias="Minimum Total Transaction Count" Value="1" DataType="" /><Param Name="@customerList" Alias="Customer (comma separated list or -ALL-)" Value="-ALL-" DataType="" /><Param Name="@RiskClassList" Alias="Risk Class (comma separated list or -ALL-)" Value="-ALL-" DataType="" /><Param Name="@CustomerTypeList" Alias="Customer Type (comma separated list or -ALL-)" Value="E" DataType="" /><Param Name="@AccountTypeList" Alias="Account Type (comma separated list or -ALL-)" Value="-ALL-" DataType="" /><Param Name="@BranchList" Alias="Branch (comma separated list or -ALL-)" Value="-ALL-" DataType="" /><Param Name="@DeptList" Alias="Department (comma separated list or -ALL-)" Value="-ALL-" DataType="" /><Param Name="@UseRelAcct" Alias="Include Related Accounts (1=yes, 0=no) " Value="0" DataType="" /><Param Name="@UseRelCust" Alias="Include Related Parties (1=yes, 0=no) " Value="0" DataType="" /><Param Name="@ExcludeRelList" Alias="Exclude Relationship Types (comma separated list or -NONE-)" Value="-NONE-" DataType="" /></Params>,0,1,User Defined,0,0,CustXOverY
IBetXY1M,Detect accounts with transactions between designated dollar amount within 1 calender month,Detects accounts that had transactions using a specified activity type and the total of these transactions were between a designated dollar amount range within 1 calender month.  Designed to be run Post-EOD.,1,USR_IBetXY1M,Rule,0,0,NULL,NULL,NULL,UNISYSAD,2016-09-10 08:45:11.207,0161AP002,2017-08-15 15:23:46.610,2017-08-01 19:30:22.667,0,0x00000000007F6932,1,,0,15,0,1,1,<Params><Param Name="@activityTypeList" Alias="List of Activity Types separated by comma. -ALL- for All." Value="2334,2344,2354,2354,2364,1044,1024,2374,2384,2414" /><Param Name="@minimumAmount" Alias="Minimum Amount" Value="100000" /><Param Name="@maximumAmount" Alias="Maximum Amount" Value="-1" /><Param Name="@CustTypeList" Alias="List of Customer Types separated by Comma. -ALL- for All." Value="I" /><Param Name="@RiskClassList" Alias="List of Risk Classes separated by comma. -ALL- for All." Value="-ALL-" /><Param Name="@BranchList" Alias="List of Branches separated by comma. -ALL- for All." Value="-ALL-" /></Params>,0,1,User Defined,0,0,1MnthBetXY
OBetXY1M,Detect accounts with transactions between designated dollar amount within 1 calender month,Detects accounts that had transactions using a specified activity type and the total of these transactions were between a designated dollar amount range within 1 calender month.  Designed to be run Post-EOD.,1,USR_OBetXY1M,Rule,0,0,NULL,NULL,NULL,UNISYSAD,2016-09-10 08:45:11.213,0161AP002,2017-05-09 14:18:55.660,2017-05-01 19:30:17.167,0,0x00000000007F6935,1,,0,15,0,1,1,<Params><Param Name="@activityTypeList" Alias="List of Activity Types separated by comma. -ALL- for All." Value="2334,2344,2354,2354,2364,1044,1024,2374,2384,2414" /><Param Name="@minimumAmount" Alias="Minimum Amount" Value="300000" /><Param Name="@maximumAmount" Alias="Maximum Amount" Value="-1" /><Param Name="@CustTypeList" Alias="List of Customer Types separated by Comma. -ALL- for All." Value="E" /><Param Name="@RiskClassList" Alias="List of Risk Classes separated by comma. -ALL- for All." Value="-ALL-" /><Param Name="@BranchList" Alias="List of Branches separated by comma. -ALL- for All." Value="-ALL-" /></Params>,0,1,User Defined,0,0,1MnthBetXY
ILgTrans30,Detects customers that had transactions matching the specified criteria within the last X days.,Detects customers that had transactions matching the specified criteria within the last X days. Can be used to monitor for structured cash transactions or specific types of transactions such as ATM withdrawals.  Designed to be run Post-EOD (i.e. This rule excludes Current activity) 

Individual transactions must be greater than Minimum Transaction Amount AND less than Maximum Transaction Amount and must also match values specified for Customer, Customer Type, Risk Class, Account Type, Branch and Department. 

When using the Cash CashTran Indicator parameter, 
    1 = Ignore the Cash Tran indicator, 
    2 = include any transaction where the Cash Tran indicator is Yes OR that matches a specified Activity Type, 
    3 = include any transaction where the Cash Tran indicator is Yes AND that matches a specified Activity Type. 

Specify Number of days as 0(zero) for current date.

When using the Exclude Exempt parameter, customers will be excluded from evaluation if their Exemption Type is included in the comma separated list or if -ALL- is entered AND if the Exemption Type is configured as exempt from rules. 

The grand total amount of selected transactions must be greater than the Minimum Total Transaction Amount AND less than the Maximum Total Transaction Amount.,1,USR_ILgTrans30,Rule,0,0,NULL,NULL,NULL,UNISYSAD,2016-09-10 08:45:11.223,0161AP002,2017-11-01 09:24:14.927,2017-10-02 19:30:22.063,0,0x00000000008B6E24,1,,0,15,0,1,1,<Params><Param Name="@excludeExemptCustList" Alias="Exclude Exempt (comma separated list, -ALL- or -NONE-)" Value="-NONE-" DataType="" /><Param Name="@activityTypeList" Alias="Activity Types to be included (comma separated list, -ALL- or -NONE-)" Value="2334,2344,2354,2364,2374,2384,2414" DataType="" /><Param Name="@activityTypeExcludeList" Alias="Activity Types to be excluded (comma separated list or -NONE-) " Value="-NONE-" DataType="" /><Param Name="@cashTranIndicator" Alias="Use CashTran indicator (1-Ignore,2-Yes OR Trans matches Activity Type,3-Yes AND Trans matches Activity Type)" Value="1" DataType="" /><Param Name="@day" Alias="Number of Days" Value="30" DataType="" /><Param Name="@minimumTotalAmount" Alias="Minimum Total Transaction Amount (-1 if no minimum)" Value="-1" DataType="" /><Param Name="@maximumTotalAmount" Alias="Maximum Total Transaction Amount (-1 if no maximum)" Value="-1" DataType="" /><Param Name="@minimumAmount" Alias="Minimum Transaction Amount (-1 if no minimum)" Value="50000" DataType="" /><Param Name="@maximumAmount" Alias="Maximum Transaction Amount (-1 if no maximum)" Value="-1" DataType="" /><Param Name="@minimumcount" Alias="Minimum Total Transaction Count" Value="4" DataType="" /><Param Name="@customerList" Alias="Customer (comma separated list or -ALL-)" Value="-ALL-" DataType="" /><Param Name="@RiskClassList" Alias="Risk Class (comma separated list or -ALL-)" Value="-ALL-" DataType="" /><Param Name="@CustomerTypeList" Alias="Customer Type (comma separated list or -ALL-)" Value="I" DataType="" /><Param Name="@AccountTypeList" Alias="Account Type (comma separated list or -ALL-)" Value="-ALL-" DataType="" /><Param Name="@BranchList" Alias="Branch (comma separated list or -ALL-)" Value="-ALL-" DataType="" /><Param Name="@DeptList" Alias="Department (comma separated list or -ALL-)" Value="-ALL-" DataType="" /><Param Name="@UseRelAcct" Alias="Include Related Accounts (1=yes, 0=no) " Value="0" DataType="" /><Param Name="@UseRelCust" Alias="Include Related Parties (1=yes, 0=no) " Value="0" DataType="" /><Param Name="@ExcludeRelList" Alias="Exclude Relationship Types (comma separated list or -NONE-)" Value="-NONE-" DataType="" /></Params>,0,1,User Defined,0,0,CustXOverY
