-	--------------------------- Message Header -------------------------	
- Swift Output : FIN 940 Customer Statement Message
- Sender : WFBIUS6SXXX
- WELLS FARGO BANK, N.A.
- SAN FRANCISCO,CA US
- Receiver : BKTWUS6LXXX
- BANK OF TAIWAN
- LOS ANGELES,CA US
- MUR : 1KRzT000100001Y0
-	--------------------------- Message Text ---------------------------	
- 20: Transaction Reference Number
- 1803290537839827
- 21: Related Reference
- 1803290537839827
- 25: Account Identification
- 4000800391
- 28C: Statement Number/Sequence Number
- 00062/1
- 60F: First Opening Balance
- Debit/Credit : Credit
- Date : 28 March 2018
- Currency : USD (US DOLLAR)
- Amount : #349,516.88#
- 61: Statement Line
- Value Entr F Code Reference Amount Ma
- 180328 0328 D FCHK 13288 #1,530.93# D
- IA008317056274
- NONEREF
- 86: Information to Account Owner
- CHECK
- 61: Statement Line
- Value Entr F Code Reference Amount Ma
- 180328 0328 D FCHK 13283 #591.86# D
- IA008216887004
- NONEREF
- 86: Information to Account Owner
- CHECK
- 61: Statement Line
- Value Entr F Code Reference Amount Ma
- 180328 0328 D FCHK 13284 #303.00# D
- IA008717013021
- NONEREF
- 86: Information to Account Owner
- CHECK
- 61: Statement Line
- Value Entr F Code Reference Amount Ma
- 180328 0328 D FCHK 13261 #150.00# D
- IA008316929710
- NONEREF
- 86: Information to Account Owner
- CHECK
- 61: Statement Line
- Value Entr F Code Reference Amount Ma
- 180328 0328 D FCHK 13185 #39.00# D
- IA008316929711
- NONEREF
- 86: Information to Account Owner
- CHECK
- 61: Statement Line
20180329-0838 [Incoming]-FIN-4292-288319 NO:14 PAGE:2
********************************************************************************
- Value Entr F Code Reference Amount Ma
- 180328 0328 D FCHK 13276 #4.00# D
- IA008316929712
- NONEREF
- 86: Information to Account Owner
- CHECK
- 62F: Closing Balance (Booked Funds)
- Debit/Credit : Credit
- Date : 28 March 2018
- Currency : USD (US DOLLAR)
- Amount : #346,898.09#
- 65: Forward Available Balance
- Debit/Credit : Credit
- Date : 29 March 2018
- Currency : USD (US DOLLAR)
- Amount : #346,898.09#
-	--------------------------- Message Trailer ------------------------	
- {CHK:8A38F0B1B69F}
- {DLM:}