-	--------------------------- Message Header -------------------------	
- Swift Output : FIN 082 Undeld Msg Rpt at a Fixed Hour
- Sender : EANFXXXXXXX
- Receiver : BKTWUS6LXXX
- BANK OF TAIWAN
- LOS ANGELES,CA US
-	--------------------------- Message Text ---------------------------	
- 202: section number
- 0001
- 203: total sections
- 0001
- 171: date
- Date : 29 March 2018
- 175: time
- 1500
- 301: reporting options
- RT
- 461: Report code
- 001
-	--------------------------- Message Trailer ------------------------	
- {CHK:E9A683D72467}
- {SYS:}